0   0   0   0   
1   0   0   0   
2   0   0   0   
3   0   0   0   
4   0   0   0   
5   1.80686   3.69899   0.658982   
6   1.79959   3.75861   0.721162   
7   1.80341   3.77921   0.725903   
8   1.82045   3.84093   0.725881   
9   1.73143   3.4014   0.635261   
