0   1.37316   2.18689   0.548934   
1   1.37198   1   -nan   
2   1.37149   2.18351   0.550019   
3   1.37139   1   -nan   
4   1.3718   2.19359   0.558355   
5   1.37276   1   -nan   
6   1.37316   2.23894   0.594441   
7   1.37904   1   -nan   
8   1.39754   2.22011   0.516728   
9   1.38996   1   -nan   
10   1.34831   2.16127   0.585935   
11   1.32711   2.14044   0.615798   
12   1.32227   1   -nan   
13   1.31502   2.11288   0.619367   
14   1.31667   1   -nan   
15   1.31594   2.09286   0.600972   
16   1.31563   1   -nan   
17   1.31597   2.09289   0.600934   
18   1.31671   1   -nan   
19   1.32   2.08765   0.587585   
20   1.32787   1   -nan   
21   1.32505   2.08667   0.575253   
22   1.31984   1   -nan   
23   1.31765   2.08981   0.59466   
24   1.31645   1   -nan   
25   1.31599   2.09568   0.603201   
26   1.31628   1   -nan   
27   1.31791   2.1132   0.613456   
28   1.32241   1   -nan   
29   1.31778   2.11313   0.613665   
30   1   1   -nan   
31   1.31343   2.08784   0.602289   
32   1.37546   2.19084   0.546757   
33   1.38132   1   -nan   
34   1.37715   2.19628   0.547485   
35   1.38017   1   -nan   
36   1.37392   2.18376   0.544166   
37   1.37211   1   -nan   
38   1.37178   2.20022   0.564314   
39   1.37178   1   -nan   
40   1.37224   2.18825   0.552465   
41   1.37323   1   -nan   
