0   1.76621   3.54008   0.648533   
1   1.84314   3.92325   0.725323   
2   1.83028   3.87585   0.725196   
3   1.83104   3.87889   0.72538   
4   1.83104   3.87907   0.725503   
5   1.83104   3.87923   0.725628   
6   1.83104   3.8794   0.725745   
7   1.83103   3.87952   0.725833   
8   1.83103   3.8796   0.725898   
9   1.83103   3.87965   0.725945   
10   1.83102   3.87969   0.725979   
11   1.83102   3.87972   0.726004   
12   1.83102   3.87974   0.726022   
13   1.83102   3.87975   0.726035   
14   1.83102   3.87976   0.726044   
15   1.83102   3.87977   0.72605   
16   1.83101   3.87977   0.726055   
17   1.83101   3.87977   0.726058   
18   1.83101   3.87977   0.72606   
19   1.83101   3.87978   0.726062   
20   1.83101   3.87978   0.726063   
21   1.83101   3.87978   0.726064   
22   1.83101   3.87978   0.726064   
23   1.83101   3.87978   0.726064   
24   1.83101   3.87978   0.726065   
25   1.83101   3.87978   0.726065   
26   1.83101   3.87978   0.726065   
27   1.83101   3.87978   0.726065   
28   1.83101   3.87978   0.726065   
29   1.83101   3.87978   0.726065   
30   1.83101   3.87978   0.726065   
31   1.83101   3.87978   0.726065   
32   1.83101   3.87978   0.726065   
33   1.83101   3.87978   0.726065   
34   1.83101   3.87978   0.726065   
35   1.83101   3.87978   0.726065   
36   1.83101   3.87978   0.726065   
37   1.83101   3.87978   0.726066   
38   1.83101   3.87977   0.726066   
39   1.83101   3.87977   0.726066   
40   1.831   3.87975   0.726067   
41   1.83099   3.87971   0.72607   
42   1.83097   3.87963   0.726075   
43   1.83091   3.87945   0.726086   
44   1.83078   3.87899   0.726111   
45   1.83042   3.87778   0.726169   
46   1.82939   3.8742   0.726306   
47   1.82608   3.86247   0.72657   
48   1.81523   3.82116   0.725336   
49   1.77687   3.56187   0.636091   
50   1.77687   3.56187   0.636091   
51   1.81523   3.82116   0.725336   
52   1.82608   3.86247   0.72657   
53   1.82939   3.8742   0.726306   
54   1.83042   3.87778   0.726169   
55   1.83078   3.87899   0.726111   
56   1.83091   3.87945   0.726086   
57   1.83097   3.87963   0.726075   
58   1.83099   3.87971   0.72607   
59   1.831   3.87975   0.726067   
60   1.83101   3.87977   0.726066   
61   1.83101   3.87977   0.726066   
62   1.83101   3.87978   0.726066   
63   1.83101   3.87978   0.726065   
64   1.83101   3.87978   0.726065   
65   1.83101   3.87978   0.726065   
66   1.83101   3.87978   0.726065   
67   1.83101   3.87978   0.726065   
68   1.83101   3.87978   0.726065   
69   1.83101   3.87978   0.726065   
70   1.83101   3.87978   0.726065   
71   1.83101   3.87978   0.726065   
72   1.83101   3.87978   0.726065   
73   1.83101   3.87978   0.726065   
74   1.83101   3.87978   0.726065   
75   1.83101   3.87978   0.726065   
76   1.83101   3.87978   0.726064   
77   1.83101   3.87978   0.726064   
78   1.83101   3.87978   0.726064   
79   1.83101   3.87978   0.726063   
80   1.83101   3.87978   0.726062   
81   1.83101   3.87977   0.72606   
82   1.83101   3.87977   0.726058   
83   1.83101   3.87977   0.726055   
84   1.83102   3.87977   0.72605   
85   1.83102   3.87976   0.726044   
86   1.83102   3.87975   0.726035   
87   1.83102   3.87974   0.726022   
88   1.83102   3.87972   0.726004   
89   1.83102   3.87969   0.725979   
90   1.83103   3.87965   0.725945   
91   1.83103   3.8796   0.725898   
92   1.83103   3.87952   0.725833   
93   1.83104   3.8794   0.725745   
94   1.83104   3.87923   0.725628   
95   1.83104   3.87907   0.725503   
96   1.83104   3.87889   0.72538   
97   1.83028   3.87585   0.725196   
98   1.84314   3.92325   0.725323   
99   1.76621   3.54008   0.648533   
